{
	"network":{
		"tcpPortMC":"1339",
		"tcpPortASC":"5003",
		"udpPortASC":"5003",
		"drxpMonMulticastGroup":"224.0.0.1",
		"drxpMonMulticastPort":"30001",
		"hostNameASC":"tsc-dev"
	},
	"mc_xml":{
		"schema":"/opt/alma/conf/ASC_MC.xsd",
		"encapsulation":"binxml"
	},
	"hardware":{
		"assignedIF":"1",
		"assignedDRXPDevice":"/dev/drxpd2",
                "assignedGPUIds":"2"
	},
	"operation":{
		"mode":"normal",
		"logfile":"/tmp/drxp2/asm_drxp2.log",
		"loglevel":"debug",
		"startObsMinLeadtime":"4.0",
		"mimeOutputPath":"/tmp/drxp2/"
	},
	"simulation":{
		"inputFileDTS":"/opt/alma/share/fourlines_synthetic_48ms_2pol.3bit",
		"inputFileMIME":"/opt/alma/share/uid__X0_X1_X4.mime"
	}
}
